{
    "test_sets":[
        {
            "name":"2048_Kb_Record_Read",
            "test_cases":[
                {
                    "name":"Fread",
                    "measurements":[
                        {
                            "name":"Score",
                            "unit":"Operations per second"
                        }
                    ]
                },
                {
                    "name":"Random_read",
                    "measurements":[
                        {
                            "name":"Score",
                            "unit":"Operations per second"
                        }
                    ]
                },
                {
                    "name":"ReFread",
                    "measurements":[
                        {
                            "name":"Score",
                            "unit":"Operations per second"
                        }
                    ]
                },
                {
                    "name":"ReRead",
                    "measurements":[
                        {
                            "name":"Score",
                            "unit":"Operations per second"
                        }
                    ]
                },
                {
                    "name":"Read",
                    "measurements":[
                        {
                            "name":"Score",
                            "unit":"Operations per second"
                        }
                    ]
                }
            ]
        },
        {
            "name":"2048_Kb_Record_Write",
            "test_cases":[
                {
                    "name":"Fwrite",
                    "measurements":[
                        {
                            "name":"Score",
                            "unit":"Operations per second"
                        }
                    ]
                },
                {
                    "name":"Random_write",
                    "measurements":[
                        {
                            "name":"Score",
                            "unit":"Operations per second"
                        }
                    ]
                },
                {
                    "name":"ReFwrite",
                    "measurements":[
                        {
                            "name":"Score",
                            "unit":"Operations per second"
                        }
                    ]
                },
                {
                    "name":"ReWrite",
                    "measurements":[
                        {
                            "name":"Score",
                            "unit":"Operations per second"
                        }
                    ]
                },
                {
                    "name":"Write",
                    "measurements":[
                        {
                            "name":"Score",
                            "unit":"Operations per second"
                        }
                    ]
                }
            ]
        }
    ]
}
