{
    "testName": "Benchmark.ptsematest",
    "specs": {
        "default": {
            "PARAMS": "-a -t -p99 -i100 -d25 -l100000"
        },
        "latest": {
            "PER_JOB_BUILD": "true",
            "gitrepo": "https://git.kernel.org/pub/scm/utils/rt-tests/rt-tests.git",
            "gitref": "unstable/devel/latest",
            "PARAMS": "-a -t -p99 -i100 -d25 -l100000"
        }
    }
}
