{
    "testName": "Benchmark.signaltest",
    "specs": {
        "default": {
            "PARAMS": "-t 2 -m -l 10000 -p 60 -q"
        },
        "latest": {
            "PER_JOB_BUILD": "true",
            "gitrepo": "https://git.kernel.org/pub/scm/utils/rt-tests/rt-tests.git",
            "gitref": "unstable/devel/latest",
            "PARAMS": "-t 2 -m -l 10000 -p 60 -q"
        }
    }
}
