{
    "chart_type": "measure_table",
    "measures": ["default.size-1024.throughput",
        "default.size-8192.throughput",
        "default.size-262144.throughput",
        "default.size-4194304.throughput"]
}
