{
    "test_sets":[
        {
            "name":"default",
            "test_cases":[
                {
                    "name":"fs_mark",
                    "measurements":[
                        {
                            "name":"FSUse",
                            "unit":"%CPU"
                        },
                        {
                            "name":"Count",
                            "unit":"files"
                        },
                        {
                            "name":"Size",
                            "unit":"bytes"
                        },
                        {
                            "name":"FS_Mark",
                            "unit":"files/s"
                        },
                        {
                            "name":"Overhead",
                            "unit":"microseconds"
                        }
                    ]
                }
            ]
        }
    ]
}
